Home Work 4
================

Activity \#3
------------

1.  Compute the mean life expectancy for all possible combinations of continent and year.

``` r
gapminder %>% 
  group_by(continent, year) %>% 
  summarize(Mean_lifeExp=mean(lifeExp))
```

    ## # A tibble: 60 x 3
    ## # Groups:   continent [?]
    ##    continent  year Mean_lifeExp
    ##       <fctr> <int>        <dbl>
    ##  1    Africa  1952     39.13550
    ##  2    Africa  1957     41.26635
    ##  3    Africa  1962     43.31944
    ##  4    Africa  1967     45.33454
    ##  5    Africa  1972     47.45094
    ##  6    Africa  1977     49.58042
    ##  7    Africa  1982     51.59287
    ##  8    Africa  1987     53.34479
    ##  9    Africa  1992     53.62958
    ## 10    Africa  1997     53.59827
    ## # ... with 50 more rows
…
