…
    ## [1] 6

    ## [1] 1704

Another way to get this information about extent and size is to use the `dim` function. This will give the dimensions in a single line of code which may save you time.

    ## [1] 1704    6

If you just want the number of variables, you could also use the `str` funciton (demonstrated above). The first line of output tells you the number of observations and variables. The `length` funciton (below) will give the number of variables

    ## [1] 6

Also if you just type in "gampminder" you will get a data preview which will give you all the variables and their names and tell you the number of rows and tell you the type of each variable.

    ## # A tibble: 1,704 x 6
    ##        country continent  year lifeExp      pop gdpPercap
    ##         <fctr>    <fctr> <int>   <dbl>    <int>     <dbl>
    ##  1 Afghanistan      Asia  1952  28.801  8425333  779.4453
    ##  2 Afghanistan      Asia  1957  30.332  9240934  820.8530
    ##  3 Afghanistan      Asia  1962  31.997 10267083  853.1007
    ##  4 Afghanistan      Asia  1967  34.020 11537966  836.1971
    ##  5 Afghanistan      Asia  1972  36.088 13079460  739.9811
    ##  6 Afghanistan      Asia  1977  38.438 14880372  786.1134
    ##  7 Afghanistan      Asia  1982  39.854 12881816  978.0114
    ##  8 Afghanistan      Asia  1987  40.822 13867957  852.3959
    ##  9 Afghanistan      Asia  1992  41.674 16317921  649.3414
    ## 10 Afghanistan      Asia  1997  41.763 22227415  635.3414
    ## # ... with 1,694 more rows
…
This distribution shows a negative skew.

To explore the variable country, I asked for a summary. From this summary, we can see that each country has 12 data points with data being collected from 142 countries.

    ## # A tibble: 142 x 2
    ##        country `n_distinct(year)`
    ##         <fctr>              <int>
    ##  1 Afghanistan                 12
    ##  2     Albania                 12
    ##  3     Algeria                 12
    ##  4      Angola                 12
    ##  5   Argentina                 12
    ##  6   Australia                 12
    ##  7     Austria                 12
    ##  8     Bahrain                 12
    ##  9  Bangladesh                 12
    ## 10     Belgium                 12
    ## # ... with 132 more rows
…
