…
> sl\_fac &lt;-singer\_locations %&gt;% mutate(city\_factor = as\_factor(city))

> Output: Error in mutate\_impl(.data, dots) : Evaluation error: `idx` must contain one integer for each level of `f`.

Remove NA's and then run:

``` r
singer_locations %>% 
  filter(!is.na(city)) %>% 
  mutate(city_factor = as_factor(city)) 
```

    ## Warning: package 'bindrcpp' was built under R version 3.3.2

    ## # A tibble: 4,129 x 15
    ##              track_id                            title            song_id
    ##                 <chr>                            <chr>              <chr>
    ##  1 TRXJANY128F42246FC                    Lonely Island SODESQP12A6D4F98EF
    ##  2 TRIKPCA128F424A553            Here's That Rainy Day SOQUYQD12A8C131619
    ##  3 TRBYYXH128F4264585                            Games SOPIOCP12A8C13A322
    ##  4 TRKFFKR128F9303AE3                       More Pipes SOHQSPY12AB0181325
    ##  5 TRWKTVW12903CE5ACF                      Indian Deli SOGYBYQ12AB0188586
    ##  6 TRUWFXF128E0795D22                    Miss Gorgeous SOTEIQB12A6702048D
    ##  7 TRYKVFW128F4243264                      Lahainaluna SOUZVTG12A8C1308FB
    ##  8 TRUNSOU12903CC52BD         The Ingenue (LP Version) SOJESNI12AB0186408
    ##  9 TRBNFTT128F92FB599 The Unquiet Grave (Child No. 78) SOTSNHW12AB0182A9D
    ## 10 TREGTHP128F4286994                       The Breaks SORKAVQ12A8C137E9C
    ## # ... with 4,119 more rows, and 12 more variables: release <chr>,
    ## #   artist_id <chr>, artist_name <chr>, year <int>, duration <dbl>,
    ## #   artist_hotttnesss <dbl>, artist_familiarity <dbl>, latitude <dbl>,
    ## #   longitude <dbl>, name <chr>, city <chr>, city_factor <fctr>
…
